{
    "R140": {
        "ifbw": 100,
        "power": "HIGH",
        "start_freq": 250000000.0,
        "stop_freq": 14000000000.0,
        "n_fruits": 1,
        "n_meas": 3,
        "n_points": 56,
        "target_temperature": 45,
        "min_temperature": 41,
        "temperature_tolerance": 0.5,
        "datetime": "20240704_103335"
    },
    "RP140B": {
        "ifbw": 100,
        "power": "HIGH",
        "start_freq": 250000000.0,
        "stop_freq": 14000000000.0,
        "n_fruits": 1,
        "n_meas": 3,
        "n_points": 56,
        "target_temperature": 45,
        "min_temperature": 41,
        "temperature_tolerance": 0.5,
        "datetime": "20240821_142902"
    }
}